\relax 
\providecommand\HyperFirstAtBeginDocument{\AtBeginDocument}
\HyperFirstAtBeginDocument{\ifx\hyper@anchor\@undefined
\global\let\oldcontentsline\contentsline
\gdef\contentsline#1#2#3#4{\oldcontentsline{#1}{#2}{#3}}
\global\let\oldnewlabel\newlabel
\gdef\newlabel#1#2{\newlabelxx{#1}#2}
\gdef\newlabelxx#1#2#3#4#5#6{\oldnewlabel{#1}{{#2}{#3}}}
\AtEndDocument{\ifx\hyper@anchor\@undefined
\let\contentsline\oldcontentsline
\let\newlabel\oldnewlabel
\fi}
\fi}
\global\let\hyper@last\relax 
\gdef\HyperFirstAtBeginDocument#1{#1}
\providecommand\HyField@AuxAddToFields[1]{}
\providecommand\HyField@AuxAddToCoFields[2]{}
\@writefile{toc}{\contentsline {section}{Technical skills}{1}{section*.1}}
\@writefile{toc}{\contentsline {section}{Experience}{1}{section*.2}}
\@writefile{toc}{\contentsline {subsection}{Present}{1}{section*.3}}
\@writefile{toc}{\contentsline {subsection}{Internship}{1}{section*.4}}
\@writefile{toc}{\contentsline {subsection}{Projects}{1}{section*.5}}
\@writefile{toc}{\contentsline {section}{Education}{3}{section*.6}}
\@writefile{toc}{\contentsline {section}{Activities}{3}{section*.7}}
\@writefile{toc}{\contentsline {section}{Interests}{3}{section*.8}}
\@writefile{toc}{\contentsline {section}{Reference}{3}{section*.9}}
\@writefile{toc}{\contentsline {section}{Declaration}{3}{section*.10}}
\newlabel{lastpage}{{}{3}{}{section*.10}{}}
