\BOOKMARK [1][]{section*.1}{\376\377\000T\000e\000c\000h\000n\000i\000c\000a\000l\000\040\000s\000k\000i\000l\000l\000s}{}% 1
\BOOKMARK [1][]{section*.2}{\376\377\000E\000x\000p\000e\000r\000i\000e\000n\000c\000e}{}% 2
\BOOKMARK [2][]{section*.3}{\376\377\000P\000r\000e\000s\000e\000n\000t}{section*.2}% 3
\BOOKMARK [2][]{section*.4}{\376\377\000I\000n\000t\000e\000r\000n\000s\000h\000i\000p}{section*.2}% 4
\BOOKMARK [2][]{section*.5}{\376\377\000P\000r\000o\000j\000e\000c\000t\000s}{section*.2}% 5
\BOOKMARK [1][]{section*.6}{\376\377\000E\000d\000u\000c\000a\000t\000i\000o\000n}{}% 6
\BOOKMARK [1][]{section*.7}{\376\377\000A\000c\000t\000i\000v\000i\000t\000i\000e\000s}{}% 7
\BOOKMARK [1][]{section*.8}{\376\377\000I\000n\000t\000e\000r\000e\000s\000t\000s}{}% 8
\BOOKMARK [1][]{section*.9}{\376\377\000R\000e\000f\000e\000r\000e\000n\000c\000e}{}% 9
\BOOKMARK [1][]{section*.10}{\376\377\000D\000e\000c\000l\000a\000r\000a\000t\000i\000o\000n}{}% 10
